11/29/14 22:55:10 ******************************************************
11/29/14 22:55:10 ** condor_scheduniv_exec.135.0 (CONDOR_DAGMAN) STARTING UP
11/29/14 22:55:10 ** /usr/bin/condor_dagman
11/29/14 22:55:10 ** SubsystemInfo: name=DAGMAN type=DAGMAN(10) class=DAEMON(1)
11/29/14 22:55:10 ** Configuration: subsystem:DAGMAN local:<NONE> class:DAEMON
11/29/14 22:55:10 ** $CondorVersion: 8.0.5 Jan 14 2014 BuildID: Debian-8.0.5~dfsg.1-1ubuntu1 Debian-8.0.5~dfsg.1-1ubuntu1 $
11/29/14 22:55:10 ** $CondorPlatform: X86_64-Ubuntu_ $
11/29/14 22:55:10 ** PID = 6158
11/29/14 22:55:10 ** Log last touched time unavailable (No such file or directory)
11/29/14 22:55:10 ******************************************************
11/29/14 22:55:10 Using config source: /etc/condor/condor_config
11/29/14 22:55:10 Using local config sources: 
11/29/14 22:55:10    /etc/condor/config.d/00debconf
11/29/14 22:55:10    /etc/condor/condor_config.local
11/29/14 22:55:10 DaemonCore: command socket at <169.254.169.254:57783>
11/29/14 22:55:10 DaemonCore: private command socket at <169.254.169.254:57783>
11/29/14 22:55:10 DAGMAN_USE_STRICT setting: 1
11/29/14 22:55:10 DAGMAN_VERBOSITY setting: 3
11/29/14 22:55:10 DAGMAN_DEBUG_CACHE_SIZE setting: 5242880
11/29/14 22:55:10 DAGMAN_DEBUG_CACHE_ENABLE setting: False
11/29/14 22:55:10 DAGMAN_SUBMIT_DELAY setting: 0
11/29/14 22:55:10 DAGMAN_MAX_SUBMIT_ATTEMPTS setting: 6
11/29/14 22:55:10 DAGMAN_STARTUP_CYCLE_DETECT setting: False
11/29/14 22:55:10 DAGMAN_MAX_SUBMITS_PER_INTERVAL setting: 5
11/29/14 22:55:10 DAGMAN_USER_LOG_SCAN_INTERVAL setting: 5
11/29/14 22:55:10 DAGMAN_DEFAULT_PRIORITY setting: 0
11/29/14 22:55:10 DAGMAN_ALWAYS_USE_NODE_LOG setting: True
11/29/14 22:55:10 DAGMAN_SUPPRESS_NOTIFICATION setting: True
11/29/14 22:55:10 allow_events (DAGMAN_IGNORE_DUPLICATE_JOB_EXECUTION, DAGMAN_ALLOW_EVENTS) setting: 114
11/29/14 22:55:10 DAGMAN_RETRY_SUBMIT_FIRST setting: True
11/29/14 22:55:10 DAGMAN_RETRY_NODE_FIRST setting: False
11/29/14 22:55:10 DAGMAN_MAX_JOBS_IDLE setting: 0
11/29/14 22:55:10 DAGMAN_MAX_JOBS_SUBMITTED setting: 0
11/29/14 22:55:10 DAGMAN_MAX_PRE_SCRIPTS setting: 0
11/29/14 22:55:10 DAGMAN_MAX_POST_SCRIPTS setting: 0
11/29/14 22:55:10 DAGMAN_ALLOW_LOG_ERROR setting: False
11/29/14 22:55:10 DAGMAN_MUNGE_NODE_NAMES setting: True
11/29/14 22:55:10 DAGMAN_PROHIBIT_MULTI_JOBS setting: False
11/29/14 22:55:10 DAGMAN_SUBMIT_DEPTH_FIRST setting: False
11/29/14 22:55:10 DAGMAN_ALWAYS_RUN_POST setting: True
11/29/14 22:55:10 DAGMAN_ABORT_DUPLICATES setting: True
11/29/14 22:55:10 DAGMAN_ABORT_ON_SCARY_SUBMIT setting: True
11/29/14 22:55:10 DAGMAN_PENDING_REPORT_INTERVAL setting: 600
11/29/14 22:55:10 DAGMAN_AUTO_RESCUE setting: True
11/29/14 22:55:10 DAGMAN_MAX_RESCUE_NUM setting: 100
11/29/14 22:55:10 DAGMAN_WRITE_PARTIAL_RESCUE setting: True
11/29/14 22:55:10 DAGMAN_DEFAULT_NODE_LOG setting: null
11/29/14 22:55:10 DAGMAN_GENERATE_SUBDAG_SUBMITS setting: True
11/29/14 22:55:10 DAGMAN_MAX_JOB_HOLDS setting: 100
11/29/14 22:55:10 DAGMAN_HOLD_CLAIM_TIME setting: 20
11/29/14 22:55:10 ALL_DEBUG setting: 
11/29/14 22:55:10 DAGMAN_DEBUG setting: 
11/29/14 22:55:10 argv[0] == "condor_scheduniv_exec.135.0"
11/29/14 22:55:10 argv[1] == "-Lockfile"
11/29/14 22:55:10 argv[2] == "WordCountWF-0.dag.lock"
11/29/14 22:55:10 argv[3] == "-AutoRescue"
11/29/14 22:55:10 argv[4] == "1"
11/29/14 22:55:10 argv[5] == "-DoRescueFrom"
11/29/14 22:55:10 argv[6] == "0"
11/29/14 22:55:10 argv[7] == "-Dag"
11/29/14 22:55:10 argv[8] == "WordCountWF-0.dag"
11/29/14 22:55:10 argv[9] == "-MaxPre"
11/29/14 22:55:10 argv[10] == "2"
11/29/14 22:55:10 argv[11] == "-MaxPost"
11/29/14 22:55:10 argv[12] == "20"
11/29/14 22:55:10 argv[13] == "-Suppress_notification"
11/29/14 22:55:10 argv[14] == "-CsdVersion"
11/29/14 22:55:10 argv[15] == "$CondorVersion: 8.0.5 Jan 14 2014 BuildID: Debian-8.0.5~dfsg.1-1ubuntu1 Debian-8.0.5~dfsg.1-1ubuntu1 $"
11/29/14 22:55:10 argv[16] == "-Notification"
11/29/14 22:55:10 argv[17] == "NEVER"
11/29/14 22:55:10 argv[18] == "-Dagman"
11/29/14 22:55:10 argv[19] == "/usr/bin/condor_dagman"
11/29/14 22:55:10 Default node log file is: </home/khawar/pegasus_service/peg_files/tmpCVembT/tmpwork/khawar/pegasus/WordCountWF/run0001/WordCountWF-0.dag.nodes.log>
11/29/14 22:55:10 DAG Lockfile will be written to WordCountWF-0.dag.lock
11/29/14 22:55:10 DAG Input file is WordCountWF-0.dag
11/29/14 22:55:10 Ignoring value of DAGMAN_LOG_ON_NFS_IS_ERROR.
11/29/14 22:55:10 Parsing 1 dagfiles
11/29/14 22:55:10 Parsing WordCountWF-0.dag ...
11/29/14 22:55:10 Dag contains 16 total jobs
11/29/14 22:55:10 Sleeping for 12 seconds to ensure ProcessId uniqueness
11/29/14 22:55:22 Bootstrapping...
11/29/14 22:55:22 Number of pre-completed nodes: 0
11/29/14 22:55:22 Of 16 nodes total:
11/29/14 22:55:22  Done     Pre   Queued    Post   Ready   Un-Ready   Failed
11/29/14 22:55:22   ===     ===      ===     ===     ===        ===      ===
11/29/14 22:55:22     0       0        0       0       2         14        0
11/29/14 22:55:22 0 job proc(s) currently held
11/29/14 22:55:22 Registering condor_event_timer...
11/29/14 22:55:23 MultiLogFiles: truncating log file /home/khawar/pegasus_service/peg_files/tmpCVembT/tmpwork/khawar/pegasus/WordCountWF/run0001/WordCountWF-0.dag.nodes.log
11/29/14 22:55:23 Submitting Condor Node create_dir_WordCountWF_0_condorpool job(s)...
11/29/14 22:55:23 Adding a DAGMan auxiliary log /home/khawar/pegasus_service/peg_files/tmpCVembT/tmpwork/khawar/pegasus/WordCountWF/run0001/WordCountWF-0.dag.nodes.log
11/29/14 22:55:23 Masking the events recorded in the DAGMAN auxiliary log
11/29/14 22:55:23 Mask for auxiliary log is 0,1,2,4,5,7,9,10,11,12,13,16,17,24,27
11/29/14 22:55:23 submitting: condor_submit -a dag_node_name' '=' 'create_dir_WordCountWF_0_condorpool -a +DAGManJobId' '=' '135 -a DAGManJobId' '=' '135 -a submit_event_notes' '=' 'DAG' 'Node:' 'create_dir_WordCountWF_0_condorpool -a dagman_log' '=' '/home/khawar/pegasus_service/peg_files/tmpCVembT/tmpwork/khawar/pegasus/WordCountWF/run0001/WordCountWF-0.dag.nodes.log -a +DAGManNodesMask' '=' '"0,1,2,4,5,7,9,10,11,12,13,16,17,24,27" -a DAG_STATUS' '=' '0 -a FAILED_COUNT' '=' '0 -a +DAGParentNodeNames' '=' '"" -a +KeepClaimIdle' '=' '20 -a notification' '=' 'never create_dir_WordCountWF_0_condorpool.sub
11/29/14 22:55:23 From submit: Submitting job(s).
11/29/14 22:55:23 From submit: 1 job(s) submitted to cluster 136.
11/29/14 22:55:23 	assigned Condor ID (136.0.0)
11/29/14 22:55:23 Submitting Condor Node stage_worker_local_WordCountWF_0_local job(s)...
11/29/14 22:55:23 Adding a DAGMan auxiliary log /home/khawar/pegasus_service/peg_files/tmpCVembT/tmpwork/khawar/pegasus/WordCountWF/run0001/WordCountWF-0.dag.nodes.log
11/29/14 22:55:23 Masking the events recorded in the DAGMAN auxiliary log
11/29/14 22:55:23 Mask for auxiliary log is 0,1,2,4,5,7,9,10,11,12,13,16,17,24,27
11/29/14 22:55:23 submitting: condor_submit -a dag_node_name' '=' 'stage_worker_local_WordCountWF_0_local -a +DAGManJobId' '=' '135 -a DAGManJobId' '=' '135 -a submit_event_notes' '=' 'DAG' 'Node:' 'stage_worker_local_WordCountWF_0_local -a dagman_log' '=' '/home/khawar/pegasus_service/peg_files/tmpCVembT/tmpwork/khawar/pegasus/WordCountWF/run0001/WordCountWF-0.dag.nodes.log -a +DAGManNodesMask' '=' '"0,1,2,4,5,7,9,10,11,12,13,16,17,24,27" -a DAG_STATUS' '=' '0 -a FAILED_COUNT' '=' '0 -a +DAGParentNodeNames' '=' '"" -a +KeepClaimIdle' '=' '20 -a notification' '=' 'never stage_worker_local_WordCountWF_0_local.sub
11/29/14 22:55:24 From submit: Submitting job(s).
11/29/14 22:55:24 From submit: 1 job(s) submitted to cluster 137.
11/29/14 22:55:24 	assigned Condor ID (137.0.0)
11/29/14 22:55:24 Just submitted 2 jobs this cycle...
11/29/14 22:55:24 Currently monitoring 1 Condor log file(s)
11/29/14 22:55:24 Reassigning the id of job create_dir_WordCountWF_0_condorpool from (136.0.0) to (136.0.0)
11/29/14 22:55:24 Event: ULOG_SUBMIT for Condor Node create_dir_WordCountWF_0_condorpool (136.0.0)
11/29/14 22:55:24 Number of idle job procs: 1
11/29/14 22:55:24 Reassigning the id of job stage_worker_local_WordCountWF_0_local from (137.0.0) to (137.0.0)
11/29/14 22:55:24 Event: ULOG_SUBMIT for Condor Node stage_worker_local_WordCountWF_0_local (137.0.0)
11/29/14 22:55:24 Number of idle job procs: 2
11/29/14 22:55:24 Of 16 nodes total:
11/29/14 22:55:24  Done     Pre   Queued    Post   Ready   Un-Ready   Failed
11/29/14 22:55:24   ===     ===      ===     ===     ===        ===      ===
11/29/14 22:55:24     0       0        2       0       0         14        0
11/29/14 22:55:24 0 job proc(s) currently held
11/29/14 22:56:04 Currently monitoring 1 Condor log file(s)
11/29/14 22:56:06 Event: ULOG_EXECUTE for Condor Node stage_worker_local_WordCountWF_0_local (137.0.0)
11/29/14 22:56:06 Number of idle job procs: 1
11/29/14 22:56:06 Event: ULOG_EXECUTE for Condor Node create_dir_WordCountWF_0_condorpool (136.0.0)
11/29/14 22:56:06 Number of idle job procs: 0
11/29/14 22:56:06 Event: ULOG_JOB_TERMINATED for Condor Node stage_worker_local_WordCountWF_0_local (137.0.0)
11/29/14 22:56:06 Number of idle job procs: 0
11/29/14 22:56:06 Node stage_worker_local_WordCountWF_0_local job proc (137.0.0) completed successfully.
11/29/14 22:56:06 Node stage_worker_local_WordCountWF_0_local job completed
11/29/14 22:56:06 Of 16 nodes total:
11/29/14 22:56:06  Done     Pre   Queued    Post   Ready   Un-Ready   Failed
11/29/14 22:56:06   ===     ===      ===     ===     ===        ===      ===
11/29/14 22:56:06     1       0        1       0       0         14        0
11/29/14 22:56:06 0 job proc(s) currently held
11/29/14 22:56:11 Currently monitoring 1 Condor log file(s)
11/29/14 22:56:11 Event: ULOG_JOB_TERMINATED for Condor Node create_dir_WordCountWF_0_condorpool (136.0.0)
11/29/14 22:56:11 Number of idle job procs: 0
11/29/14 22:56:11 Node create_dir_WordCountWF_0_condorpool job proc (136.0.0) completed successfully.
11/29/14 22:56:11 Node create_dir_WordCountWF_0_condorpool job completed
11/29/14 22:56:11 Running POST script of Node create_dir_WordCountWF_0_condorpool...
11/29/14 22:56:11 Of 16 nodes total:
11/29/14 22:56:11  Done     Pre   Queued    Post   Ready   Un-Ready   Failed
11/29/14 22:56:11   ===     ===      ===     ===     ===        ===      ===
11/29/14 22:56:11     1       0        0       1       0         14        0
11/29/14 22:56:11 0 job proc(s) currently held
11/29/14 22:56:11 Initializing logfile /home/khawar/pegasus_service/peg_files/tmpCVembT/tmpwork/khawar/pegasus/WordCountWF/run0001/WordCountWF-0.dag.nodes.log, 136, 0, 0
11/29/14 22:56:16 Currently monitoring 1 Condor log file(s)
11/29/14 22:56:16 Event: ULOG_POST_SCRIPT_TERMINATED for Condor Node create_dir_WordCountWF_0_condorpool (136.0.0)
11/29/14 22:56:16 POST Script of Node create_dir_WordCountWF_0_condorpool completed successfully.
11/29/14 22:56:16 Of 16 nodes total:
11/29/14 22:56:16  Done     Pre   Queued    Post   Ready   Un-Ready   Failed
11/29/14 22:56:16   ===     ===      ===     ===     ===        ===      ===
11/29/14 22:56:16     2       0        0       0       2         12        0
11/29/14 22:56:16 0 job proc(s) currently held
11/29/14 22:56:21 Submitting Condor Node stage_in_local_condorpool_0_0 job(s)...
11/29/14 22:56:21 Adding a DAGMan auxiliary log /home/khawar/pegasus_service/peg_files/tmpCVembT/tmpwork/khawar/pegasus/WordCountWF/run0001/WordCountWF-0.dag.nodes.log
11/29/14 22:56:21 Masking the events recorded in the DAGMAN auxiliary log
11/29/14 22:56:21 Mask for auxiliary log is 0,1,2,4,5,7,9,10,11,12,13,16,17,24,27
11/29/14 22:56:21 submitting: condor_submit -a dag_node_name' '=' 'stage_in_local_condorpool_0_0 -a +DAGManJobId' '=' '135 -a DAGManJobId' '=' '135 -a submit_event_notes' '=' 'DAG' 'Node:' 'stage_in_local_condorpool_0_0 -a dagman_log' '=' '/home/khawar/pegasus_service/peg_files/tmpCVembT/tmpwork/khawar/pegasus/WordCountWF/run0001/WordCountWF-0.dag.nodes.log -a +DAGManNodesMask' '=' '"0,1,2,4,5,7,9,10,11,12,13,16,17,24,27" -a DAG_STATUS' '=' '0 -a FAILED_COUNT' '=' '0 -a +DAGParentNodeNames' '=' '"create_dir_WordCountWF_0_condorpool,stage_worker_local_WordCountWF_0_local" -a +KeepClaimIdle' '=' '20 -a notification' '=' 'never stage_in_local_condorpool_0_0.sub
11/29/14 22:56:21 From submit: Submitting job(s).
11/29/14 22:56:21 From submit: 1 job(s) submitted to cluster 138.
11/29/14 22:56:21 	assigned Condor ID (138.0.0)
11/29/14 22:56:21 Submitting Condor Node stage_in_local_condorpool_1_0 job(s)...
11/29/14 22:56:21 Adding a DAGMan auxiliary log /home/khawar/pegasus_service/peg_files/tmpCVembT/tmpwork/khawar/pegasus/WordCountWF/run0001/WordCountWF-0.dag.nodes.log
11/29/14 22:56:21 Masking the events recorded in the DAGMAN auxiliary log
11/29/14 22:56:21 Mask for auxiliary log is 0,1,2,4,5,7,9,10,11,12,13,16,17,24,27
11/29/14 22:56:21 submitting: condor_submit -a dag_node_name' '=' 'stage_in_local_condorpool_1_0 -a +DAGManJobId' '=' '135 -a DAGManJobId' '=' '135 -a submit_event_notes' '=' 'DAG' 'Node:' 'stage_in_local_condorpool_1_0 -a dagman_log' '=' '/home/khawar/pegasus_service/peg_files/tmpCVembT/tmpwork/khawar/pegasus/WordCountWF/run0001/WordCountWF-0.dag.nodes.log -a +DAGManNodesMask' '=' '"0,1,2,4,5,7,9,10,11,12,13,16,17,24,27" -a DAG_STATUS' '=' '0 -a FAILED_COUNT' '=' '0 -a +DAGParentNodeNames' '=' '"create_dir_WordCountWF_0_condorpool,stage_worker_local_WordCountWF_0_local" -a +KeepClaimIdle' '=' '20 -a notification' '=' 'never stage_in_local_condorpool_1_0.sub
11/29/14 22:56:22 From submit: Submitting job(s).
11/29/14 22:56:22 From submit: 1 job(s) submitted to cluster 139.
11/29/14 22:56:22 	assigned Condor ID (139.0.0)
11/29/14 22:56:22 Just submitted 2 jobs this cycle...
11/29/14 22:56:22 Currently monitoring 1 Condor log file(s)
11/29/14 22:56:22 Reassigning the id of job stage_in_local_condorpool_0_0 from (138.0.0) to (138.0.0)
11/29/14 22:56:22 Event: ULOG_SUBMIT for Condor Node stage_in_local_condorpool_0_0 (138.0.0)
11/29/14 22:56:22 Number of idle job procs: 1
11/29/14 22:56:22 Reassigning the id of job stage_in_local_condorpool_1_0 from (139.0.0) to (139.0.0)
11/29/14 22:56:22 Event: ULOG_SUBMIT for Condor Node stage_in_local_condorpool_1_0 (139.0.0)
11/29/14 22:56:22 Number of idle job procs: 2
11/29/14 22:56:22 Of 16 nodes total:
11/29/14 22:56:22  Done     Pre   Queued    Post   Ready   Un-Ready   Failed
11/29/14 22:56:22   ===     ===      ===     ===     ===        ===      ===
11/29/14 22:56:22     2       0        2       0       0         12        0
11/29/14 22:56:22 0 job proc(s) currently held
11/29/14 22:56:32 Currently monitoring 1 Condor log file(s)
11/29/14 22:56:32 Event: ULOG_EXECUTE for Condor Node stage_in_local_condorpool_0_0 (138.0.0)
11/29/14 22:56:32 Number of idle job procs: 1
11/29/14 22:56:37 Currently monitoring 1 Condor log file(s)
11/29/14 22:56:37 Event: ULOG_JOB_TERMINATED for Condor Node stage_in_local_condorpool_0_0 (138.0.0)
11/29/14 22:56:37 Number of idle job procs: 1
11/29/14 22:56:37 Node stage_in_local_condorpool_0_0 job proc (138.0.0) completed successfully.
11/29/14 22:56:37 Node stage_in_local_condorpool_0_0 job completed
11/29/14 22:56:37 Running POST script of Node stage_in_local_condorpool_0_0...
11/29/14 22:56:37 Of 16 nodes total:
11/29/14 22:56:37  Done     Pre   Queued    Post   Ready   Un-Ready   Failed
11/29/14 22:56:37   ===     ===      ===     ===     ===        ===      ===
11/29/14 22:56:37     2       0        1       1       0         12        0
11/29/14 22:56:37 0 job proc(s) currently held
11/29/14 22:56:37 Initializing logfile /home/khawar/pegasus_service/peg_files/tmpCVembT/tmpwork/khawar/pegasus/WordCountWF/run0001/WordCountWF-0.dag.nodes.log, 138, 0, 0
11/29/14 22:56:42 Currently monitoring 1 Condor log file(s)
11/29/14 22:56:44 Event: ULOG_POST_SCRIPT_TERMINATED for Condor Node stage_in_local_condorpool_0_0 (138.0.0)
11/29/14 22:56:44 POST Script of Node stage_in_local_condorpool_0_0 completed successfully.
11/29/14 22:56:44 Event: ULOG_EXECUTE for Condor Node stage_in_local_condorpool_1_0 (139.0.0)
11/29/14 22:56:44 Number of idle job procs: 0
11/29/14 22:56:44 Of 16 nodes total:
11/29/14 22:56:44  Done     Pre   Queued    Post   Ready   Un-Ready   Failed
11/29/14 22:56:44   ===     ===      ===     ===     ===        ===      ===
11/29/14 22:56:44     3       0        1       0       1         11        0
11/29/14 22:56:44 0 job proc(s) currently held
11/29/14 22:56:49 Submitting Condor Node preprocess_ID0000001 job(s)...
11/29/14 22:56:49 Adding a DAGMan auxiliary log /home/khawar/pegasus_service/peg_files/tmpCVembT/tmpwork/khawar/pegasus/WordCountWF/run0001/WordCountWF-0.dag.nodes.log
11/29/14 22:56:49 Masking the events recorded in the DAGMAN auxiliary log
11/29/14 22:56:49 Mask for auxiliary log is 0,1,2,4,5,7,9,10,11,12,13,16,17,24,27
11/29/14 22:56:49 submitting: condor_submit -a dag_node_name' '=' 'preprocess_ID0000001 -a +DAGManJobId' '=' '135 -a DAGManJobId' '=' '135 -a submit_event_notes' '=' 'DAG' 'Node:' 'preprocess_ID0000001 -a dagman_log' '=' '/home/khawar/pegasus_service/peg_files/tmpCVembT/tmpwork/khawar/pegasus/WordCountWF/run0001/WordCountWF-0.dag.nodes.log -a +DAGManNodesMask' '=' '"0,1,2,4,5,7,9,10,11,12,13,16,17,24,27" -a DAG_STATUS' '=' '0 -a FAILED_COUNT' '=' '0 -a +DAGParentNodeNames' '=' '"create_dir_WordCountWF_0_condorpool,stage_in_local_condorpool_0_0" -a +KeepClaimIdle' '=' '20 -a notification' '=' 'never preprocess_ID0000001.sub
11/29/14 22:56:49 From submit: Submitting job(s).
11/29/14 22:56:49 From submit: 1 job(s) submitted to cluster 140.
11/29/14 22:56:49 	assigned Condor ID (140.0.0)
11/29/14 22:56:49 Just submitted 1 job this cycle...
11/29/14 22:56:49 Currently monitoring 1 Condor log file(s)
11/29/14 22:56:49 Event: ULOG_JOB_TERMINATED for Condor Node stage_in_local_condorpool_1_0 (139.0.0)
11/29/14 22:56:49 Number of idle job procs: 0
11/29/14 22:56:49 Node stage_in_local_condorpool_1_0 job proc (139.0.0) completed successfully.
11/29/14 22:56:49 Node stage_in_local_condorpool_1_0 job completed
11/29/14 22:56:49 Running POST script of Node stage_in_local_condorpool_1_0...
11/29/14 22:56:49 Reassigning the id of job preprocess_ID0000001 from (140.0.0) to (140.0.0)
11/29/14 22:56:49 Event: ULOG_SUBMIT for Condor Node preprocess_ID0000001 (140.0.0)
11/29/14 22:56:49 Number of idle job procs: 1
11/29/14 22:56:49 Of 16 nodes total:
11/29/14 22:56:49  Done     Pre   Queued    Post   Ready   Un-Ready   Failed
11/29/14 22:56:49   ===     ===      ===     ===     ===        ===      ===
11/29/14 22:56:49     3       0        1       1       0         11        0
11/29/14 22:56:49 0 job proc(s) currently held
11/29/14 22:56:49 Initializing logfile /home/khawar/pegasus_service/peg_files/tmpCVembT/tmpwork/khawar/pegasus/WordCountWF/run0001/WordCountWF-0.dag.nodes.log, 139, 0, 0
11/29/14 22:56:54 Currently monitoring 1 Condor log file(s)
11/29/14 22:56:54 Event: ULOG_POST_SCRIPT_TERMINATED for Condor Node stage_in_local_condorpool_1_0 (139.0.0)
11/29/14 22:56:54 POST Script of Node stage_in_local_condorpool_1_0 completed successfully.
11/29/14 22:56:54 Of 16 nodes total:
11/29/14 22:56:54  Done     Pre   Queued    Post   Ready   Un-Ready   Failed
11/29/14 22:56:54   ===     ===      ===     ===     ===        ===      ===
11/29/14 22:56:54     4       0        1       0       0         11        0
11/29/14 22:56:54 0 job proc(s) currently held
11/29/14 22:57:15 Currently monitoring 1 Condor log file(s)
11/29/14 22:57:15 Event: ULOG_EXECUTE for Condor Node preprocess_ID0000001 (140.0.0)
11/29/14 22:57:15 Number of idle job procs: 0
11/29/14 23:01:20 Currently monitoring 1 Condor log file(s)
11/29/14 23:01:20 Event: ULOG_JOB_TERMINATED for Condor Node preprocess_ID0000001 (140.0.0)
11/29/14 23:01:20 Number of idle job procs: 0
11/29/14 23:01:20 Node preprocess_ID0000001 job proc (140.0.0) completed successfully.
11/29/14 23:01:20 Node preprocess_ID0000001 job completed
11/29/14 23:01:20 Running POST script of Node preprocess_ID0000001...
11/29/14 23:01:20 Of 16 nodes total:
11/29/14 23:01:20  Done     Pre   Queued    Post   Ready   Un-Ready   Failed
11/29/14 23:01:20   ===     ===      ===     ===     ===        ===      ===
11/29/14 23:01:20     4       0        0       1       0         11        0
11/29/14 23:01:20 0 job proc(s) currently held
11/29/14 23:01:20 Initializing logfile /home/khawar/pegasus_service/peg_files/tmpCVembT/tmpwork/khawar/pegasus/WordCountWF/run0001/WordCountWF-0.dag.nodes.log, 140, 0, 0
11/29/14 23:01:25 Currently monitoring 1 Condor log file(s)
11/29/14 23:01:25 Event: ULOG_POST_SCRIPT_TERMINATED for Condor Node preprocess_ID0000001 (140.0.0)
11/29/14 23:01:25 POST Script of Node preprocess_ID0000001 completed successfully.
11/29/14 23:01:25 Of 16 nodes total:
11/29/14 23:01:25  Done     Pre   Queued    Post   Ready   Un-Ready   Failed
11/29/14 23:01:25   ===     ===      ===     ===     ===        ===      ===
11/29/14 23:01:25     5       0        0       0       4          7        0
11/29/14 23:01:25 0 job proc(s) currently held
11/29/14 23:01:30 Submitting Condor Node analyse_ID0000002 job(s)...
11/29/14 23:01:30 Adding a DAGMan auxiliary log /home/khawar/pegasus_service/peg_files/tmpCVembT/tmpwork/khawar/pegasus/WordCountWF/run0001/WordCountWF-0.dag.nodes.log
11/29/14 23:01:30 Masking the events recorded in the DAGMAN auxiliary log
11/29/14 23:01:30 Mask for auxiliary log is 0,1,2,4,5,7,9,10,11,12,13,16,17,24,27
11/29/14 23:01:30 submitting: condor_submit -a dag_node_name' '=' 'analyse_ID0000002 -a +DAGManJobId' '=' '135 -a DAGManJobId' '=' '135 -a submit_event_notes' '=' 'DAG' 'Node:' 'analyse_ID0000002 -a dagman_log' '=' '/home/khawar/pegasus_service/peg_files/tmpCVembT/tmpwork/khawar/pegasus/WordCountWF/run0001/WordCountWF-0.dag.nodes.log -a +DAGManNodesMask' '=' '"0,1,2,4,5,7,9,10,11,12,13,16,17,24,27" -a DAG_STATUS' '=' '0 -a FAILED_COUNT' '=' '0 -a +DAGParentNodeNames' '=' '"create_dir_WordCountWF_0_condorpool,stage_in_local_condorpool_1_0,preprocess_ID0000001" -a +KeepClaimIdle' '=' '20 -a notification' '=' 'never analyse_ID0000002.sub
11/29/14 23:01:30 From submit: Submitting job(s).
11/29/14 23:01:30 From submit: 1 job(s) submitted to cluster 141.
11/29/14 23:01:30 	assigned Condor ID (141.0.0)
11/29/14 23:01:30 Submitting Condor Node analyse_ID0000003 job(s)...
11/29/14 23:01:30 Adding a DAGMan auxiliary log /home/khawar/pegasus_service/peg_files/tmpCVembT/tmpwork/khawar/pegasus/WordCountWF/run0001/WordCountWF-0.dag.nodes.log
11/29/14 23:01:30 Masking the events recorded in the DAGMAN auxiliary log
11/29/14 23:01:30 Mask for auxiliary log is 0,1,2,4,5,7,9,10,11,12,13,16,17,24,27
11/29/14 23:01:30 submitting: condor_submit -a dag_node_name' '=' 'analyse_ID0000003 -a +DAGManJobId' '=' '135 -a DAGManJobId' '=' '135 -a submit_event_notes' '=' 'DAG' 'Node:' 'analyse_ID0000003 -a dagman_log' '=' '/home/khawar/pegasus_service/peg_files/tmpCVembT/tmpwork/khawar/pegasus/WordCountWF/run0001/WordCountWF-0.dag.nodes.log -a +DAGManNodesMask' '=' '"0,1,2,4,5,7,9,10,11,12,13,16,17,24,27" -a DAG_STATUS' '=' '0 -a FAILED_COUNT' '=' '0 -a +DAGParentNodeNames' '=' '"create_dir_WordCountWF_0_condorpool,stage_in_local_condorpool_1_0,preprocess_ID0000001" -a +KeepClaimIdle' '=' '20 -a notification' '=' 'never analyse_ID0000003.sub
11/29/14 23:01:30 From submit: Submitting job(s).
11/29/14 23:01:30 From submit: 1 job(s) submitted to cluster 142.
11/29/14 23:01:30 	assigned Condor ID (142.0.0)
11/29/14 23:01:30 Submitting Condor Node stage_out_local_condorpool_0_0 job(s)...
11/29/14 23:01:30 Adding a DAGMan auxiliary log /home/khawar/pegasus_service/peg_files/tmpCVembT/tmpwork/khawar/pegasus/WordCountWF/run0001/WordCountWF-0.dag.nodes.log
11/29/14 23:01:30 Masking the events recorded in the DAGMAN auxiliary log
11/29/14 23:01:30 Mask for auxiliary log is 0,1,2,4,5,7,9,10,11,12,13,16,17,24,27
11/29/14 23:01:30 submitting: condor_submit -a dag_node_name' '=' 'stage_out_local_condorpool_0_0 -a +DAGManJobId' '=' '135 -a DAGManJobId' '=' '135 -a submit_event_notes' '=' 'DAG' 'Node:' 'stage_out_local_condorpool_0_0 -a dagman_log' '=' '/home/khawar/pegasus_service/peg_files/tmpCVembT/tmpwork/khawar/pegasus/WordCountWF/run0001/WordCountWF-0.dag.nodes.log -a +DAGManNodesMask' '=' '"0,1,2,4,5,7,9,10,11,12,13,16,17,24,27" -a DAG_STATUS' '=' '0 -a FAILED_COUNT' '=' '0 -a +DAGParentNodeNames' '=' '"preprocess_ID0000001" -a +KeepClaimIdle' '=' '20 -a notification' '=' 'never stage_out_local_condorpool_0_0.sub
11/29/14 23:01:30 From submit: Submitting job(s).
11/29/14 23:01:30 From submit: 1 job(s) submitted to cluster 143.
11/29/14 23:01:30 	assigned Condor ID (143.0.0)
11/29/14 23:01:30 Submitting Condor Node clean_up_condorpool_level_3_0 job(s)...
11/29/14 23:01:30 Adding a DAGMan auxiliary log /home/khawar/pegasus_service/peg_files/tmpCVembT/tmpwork/khawar/pegasus/WordCountWF/run0001/WordCountWF-0.dag.nodes.log
11/29/14 23:01:30 Masking the events recorded in the DAGMAN auxiliary log
11/29/14 23:01:30 Mask for auxiliary log is 0,1,2,4,5,7,9,10,11,12,13,16,17,24,27
11/29/14 23:01:30 submitting: condor_submit -a dag_node_name' '=' 'clean_up_condorpool_level_3_0 -a +DAGManJobId' '=' '135 -a DAGManJobId' '=' '135 -a submit_event_notes' '=' 'DAG' 'Node:' 'clean_up_condorpool_level_3_0 -a dagman_log' '=' '/home/khawar/pegasus_service/peg_files/tmpCVembT/tmpwork/khawar/pegasus/WordCountWF/run0001/WordCountWF-0.dag.nodes.log -a +DAGManNodesMask' '=' '"0,1,2,4,5,7,9,10,11,12,13,16,17,24,27" -a DAG_STATUS' '=' '0 -a FAILED_COUNT' '=' '0 -a +DAGParentNodeNames' '=' '"preprocess_ID0000001" -a notification' '=' 'never clean_up_condorpool_level_3_0.sub
11/29/14 23:01:31 From submit: Submitting job(s).
11/29/14 23:01:31 From submit: 1 job(s) submitted to cluster 144.
11/29/14 23:01:31 	assigned Condor ID (144.0.0)
11/29/14 23:01:31 Just submitted 4 jobs this cycle...
11/29/14 23:01:31 Currently monitoring 1 Condor log file(s)
11/29/14 23:01:31 Reassigning the id of job analyse_ID0000002 from (141.0.0) to (141.0.0)
11/29/14 23:01:31 Event: ULOG_SUBMIT for Condor Node analyse_ID0000002 (141.0.0)
11/29/14 23:01:31 Number of idle job procs: 1
11/29/14 23:01:31 Reassigning the id of job analyse_ID0000003 from (142.0.0) to (142.0.0)
11/29/14 23:01:31 Event: ULOG_SUBMIT for Condor Node analyse_ID0000003 (142.0.0)
11/29/14 23:01:31 Number of idle job procs: 2
11/29/14 23:01:31 Reassigning the id of job stage_out_local_condorpool_0_0 from (143.0.0) to (143.0.0)
11/29/14 23:01:31 Event: ULOG_SUBMIT for Condor Node stage_out_local_condorpool_0_0 (143.0.0)
11/29/14 23:01:31 Number of idle job procs: 3
11/29/14 23:01:31 Reassigning the id of job clean_up_condorpool_level_3_0 from (144.0.0) to (144.0.0)
11/29/14 23:01:31 Event: ULOG_SUBMIT for Condor Node clean_up_condorpool_level_3_0 (144.0.0)
11/29/14 23:01:31 Number of idle job procs: 4
11/29/14 23:01:31 Of 16 nodes total:
11/29/14 23:01:31  Done     Pre   Queued    Post   Ready   Un-Ready   Failed
11/29/14 23:01:31   ===     ===      ===     ===     ===        ===      ===
11/29/14 23:01:31     5       0        4       0       0          7        0
11/29/14 23:01:31 0 job proc(s) currently held
11/29/14 23:01:46 Currently monitoring 1 Condor log file(s)
11/29/14 23:01:47 Event: ULOG_EXECUTE for Condor Node analyse_ID0000002 (141.0.0)
11/29/14 23:01:47 Number of idle job procs: 3
11/29/14 23:01:52 Event: ULOG_EXECUTE for Condor Node stage_out_local_condorpool_0_0 (143.0.0)
11/29/14 23:01:52 Number of idle job procs: 2
11/29/14 23:01:52 Event: ULOG_EXECUTE for Condor Node clean_up_condorpool_level_3_0 (144.0.0)
11/29/14 23:01:52 Number of idle job procs: 1
11/29/14 23:01:52 Event: ULOG_JOB_TERMINATED for Condor Node stage_out_local_condorpool_0_0 (143.0.0)
11/29/14 23:01:52 Number of idle job procs: 1
11/29/14 23:01:52 Node stage_out_local_condorpool_0_0 job proc (143.0.0) completed successfully.
11/29/14 23:01:52 Node stage_out_local_condorpool_0_0 job completed
11/29/14 23:01:52 Running POST script of Node stage_out_local_condorpool_0_0...
11/29/14 23:01:52 Of 16 nodes total:
11/29/14 23:01:52  Done     Pre   Queued    Post   Ready   Un-Ready   Failed
11/29/14 23:01:52   ===     ===      ===     ===     ===        ===      ===
11/29/14 23:01:52     5       0        3       1       0          7        0
11/29/14 23:01:52 0 job proc(s) currently held
11/29/14 23:01:52 Initializing logfile /home/khawar/pegasus_service/peg_files/tmpCVembT/tmpwork/khawar/pegasus/WordCountWF/run0001/WordCountWF-0.dag.nodes.log, 143, 0, 0
11/29/14 23:01:57 Currently monitoring 1 Condor log file(s)
11/29/14 23:02:02 Event: ULOG_POST_SCRIPT_TERMINATED for Condor Node stage_out_local_condorpool_0_0 (143.0.0)
11/29/14 23:02:02 POST Script of Node stage_out_local_condorpool_0_0 completed successfully.
11/29/14 23:02:02 Event: ULOG_EXECUTE for Condor Node analyse_ID0000003 (142.0.0)
11/29/14 23:02:02 Number of idle job procs: 0
11/29/14 23:02:02 Event: ULOG_JOB_TERMINATED for Condor Node clean_up_condorpool_level_3_0 (144.0.0)
11/29/14 23:02:02 Number of idle job procs: 0
11/29/14 23:02:02 Node clean_up_condorpool_level_3_0 job proc (144.0.0) completed successfully.
11/29/14 23:02:02 Node clean_up_condorpool_level_3_0 job completed
11/29/14 23:02:02 Running POST script of Node clean_up_condorpool_level_3_0...
11/29/14 23:02:02 Of 16 nodes total:
11/29/14 23:02:02  Done     Pre   Queued    Post   Ready   Un-Ready   Failed
11/29/14 23:02:02   ===     ===      ===     ===     ===        ===      ===
11/29/14 23:02:02     6       0        2       1       0          7        0
11/29/14 23:02:02 0 job proc(s) currently held
11/29/14 23:02:02 Initializing logfile /home/khawar/pegasus_service/peg_files/tmpCVembT/tmpwork/khawar/pegasus/WordCountWF/run0001/WordCountWF-0.dag.nodes.log, 144, 0, 0
11/29/14 23:02:07 Currently monitoring 1 Condor log file(s)
11/29/14 23:02:07 Event: ULOG_POST_SCRIPT_TERMINATED for Condor Node clean_up_condorpool_level_3_0 (144.0.0)
11/29/14 23:02:07 POST Script of Node clean_up_condorpool_level_3_0 completed successfully.
11/29/14 23:02:07 Of 16 nodes total:
11/29/14 23:02:07  Done     Pre   Queued    Post   Ready   Un-Ready   Failed
11/29/14 23:02:07   ===     ===      ===     ===     ===        ===      ===
11/29/14 23:02:07     7       0        2       0       0          7        0
11/29/14 23:02:07 0 job proc(s) currently held
11/29/14 23:06:47 Currently monitoring 1 Condor log file(s)
11/29/14 23:06:47 Event: ULOG_JOB_TERMINATED for Condor Node analyse_ID0000002 (141.0.0)
11/29/14 23:06:47 Number of idle job procs: 0
11/29/14 23:06:47 Node analyse_ID0000002 job proc (141.0.0) completed successfully.
11/29/14 23:06:47 Node analyse_ID0000002 job completed
11/29/14 23:06:47 Running POST script of Node analyse_ID0000002...
11/29/14 23:06:47 Of 16 nodes total:
11/29/14 23:06:47  Done     Pre   Queued    Post   Ready   Un-Ready   Failed
11/29/14 23:06:47   ===     ===      ===     ===     ===        ===      ===
11/29/14 23:06:47     7       0        1       1       0          7        0
11/29/14 23:06:47 0 job proc(s) currently held
11/29/14 23:06:47 Initializing logfile /home/khawar/pegasus_service/peg_files/tmpCVembT/tmpwork/khawar/pegasus/WordCountWF/run0001/WordCountWF-0.dag.nodes.log, 141, 0, 0
11/29/14 23:06:52 Currently monitoring 1 Condor log file(s)
11/29/14 23:06:52 Event: ULOG_POST_SCRIPT_TERMINATED for Condor Node analyse_ID0000002 (141.0.0)
11/29/14 23:06:52 POST Script of Node analyse_ID0000002 completed successfully.
11/29/14 23:06:52 Of 16 nodes total:
11/29/14 23:06:52  Done     Pre   Queued    Post   Ready   Un-Ready   Failed
11/29/14 23:06:52   ===     ===      ===     ===     ===        ===      ===
11/29/14 23:06:52     8       0        1       0       1          6        0
11/29/14 23:06:52 0 job proc(s) currently held
11/29/14 23:06:57 Submitting Condor Node stage_out_local_condorpool_1_0 job(s)...
11/29/14 23:06:57 Adding a DAGMan auxiliary log /home/khawar/pegasus_service/peg_files/tmpCVembT/tmpwork/khawar/pegasus/WordCountWF/run0001/WordCountWF-0.dag.nodes.log
11/29/14 23:06:57 Masking the events recorded in the DAGMAN auxiliary log
11/29/14 23:06:57 Mask for auxiliary log is 0,1,2,4,5,7,9,10,11,12,13,16,17,24,27
11/29/14 23:06:57 submitting: condor_submit -a dag_node_name' '=' 'stage_out_local_condorpool_1_0 -a +DAGManJobId' '=' '135 -a DAGManJobId' '=' '135 -a submit_event_notes' '=' 'DAG' 'Node:' 'stage_out_local_condorpool_1_0 -a dagman_log' '=' '/home/khawar/pegasus_service/peg_files/tmpCVembT/tmpwork/khawar/pegasus/WordCountWF/run0001/WordCountWF-0.dag.nodes.log -a +DAGManNodesMask' '=' '"0,1,2,4,5,7,9,10,11,12,13,16,17,24,27" -a DAG_STATUS' '=' '0 -a FAILED_COUNT' '=' '0 -a +DAGParentNodeNames' '=' '"analyse_ID0000002" -a +KeepClaimIdle' '=' '20 -a notification' '=' 'never stage_out_local_condorpool_1_0.sub
11/29/14 23:06:58 From submit: Submitting job(s).
11/29/14 23:06:58 From submit: 1 job(s) submitted to cluster 145.
11/29/14 23:06:58 	assigned Condor ID (145.0.0)
11/29/14 23:06:58 Just submitted 1 job this cycle...
11/29/14 23:06:58 Currently monitoring 1 Condor log file(s)
11/29/14 23:06:58 Reassigning the id of job stage_out_local_condorpool_1_0 from (145.0.0) to (145.0.0)
11/29/14 23:06:58 Event: ULOG_SUBMIT for Condor Node stage_out_local_condorpool_1_0 (145.0.0)
11/29/14 23:06:58 Number of idle job procs: 1
11/29/14 23:06:58 Of 16 nodes total:
11/29/14 23:06:58  Done     Pre   Queued    Post   Ready   Un-Ready   Failed
11/29/14 23:06:58   ===     ===      ===     ===     ===        ===      ===
11/29/14 23:06:58     8       0        2       0       0          6        0
11/29/14 23:06:58 0 job proc(s) currently held
11/29/14 23:07:13 Currently monitoring 1 Condor log file(s)
11/29/14 23:07:13 Event: ULOG_EXECUTE for Condor Node stage_out_local_condorpool_1_0 (145.0.0)
11/29/14 23:07:13 Number of idle job procs: 0
11/29/14 23:07:13 Event: ULOG_JOB_TERMINATED for Condor Node analyse_ID0000003 (142.0.0)
11/29/14 23:07:13 Number of idle job procs: 0
11/29/14 23:07:13 Node analyse_ID0000003 job proc (142.0.0) completed successfully.
11/29/14 23:07:13 Node analyse_ID0000003 job completed
11/29/14 23:07:13 Running POST script of Node analyse_ID0000003...
11/29/14 23:07:13 Event: ULOG_JOB_TERMINATED for Condor Node stage_out_local_condorpool_1_0 (145.0.0)
11/29/14 23:07:13 Number of idle job procs: 0
11/29/14 23:07:13 Node stage_out_local_condorpool_1_0 job proc (145.0.0) completed successfully.
11/29/14 23:07:13 Node stage_out_local_condorpool_1_0 job completed
11/29/14 23:07:13 Running POST script of Node stage_out_local_condorpool_1_0...
11/29/14 23:07:13 Of 16 nodes total:
11/29/14 23:07:13  Done     Pre   Queued    Post   Ready   Un-Ready   Failed
11/29/14 23:07:13   ===     ===      ===     ===     ===        ===      ===
11/29/14 23:07:13     8       0        0       2       0          6        0
11/29/14 23:07:13 0 job proc(s) currently held
11/29/14 23:07:13 Initializing logfile /home/khawar/pegasus_service/peg_files/tmpCVembT/tmpwork/khawar/pegasus/WordCountWF/run0001/WordCountWF-0.dag.nodes.log, 142, 0, 0
11/29/14 23:07:13 Initializing logfile /home/khawar/pegasus_service/peg_files/tmpCVembT/tmpwork/khawar/pegasus/WordCountWF/run0001/WordCountWF-0.dag.nodes.log, 145, 0, 0
11/29/14 23:07:18 Currently monitoring 1 Condor log file(s)
11/29/14 23:07:18 Event: ULOG_POST_SCRIPT_TERMINATED for Condor Node analyse_ID0000003 (142.0.0)
11/29/14 23:07:18 POST Script of Node analyse_ID0000003 completed successfully.
11/29/14 23:07:18 Event: ULOG_POST_SCRIPT_TERMINATED for Condor Node stage_out_local_condorpool_1_0 (145.0.0)
11/29/14 23:07:18 POST Script of Node stage_out_local_condorpool_1_0 completed successfully.
11/29/14 23:07:18 Of 16 nodes total:
11/29/14 23:07:18  Done     Pre   Queued    Post   Ready   Un-Ready   Failed
11/29/14 23:07:18   ===     ===      ===     ===     ===        ===      ===
11/29/14 23:07:18    10       0        0       0       3          3        0
11/29/14 23:07:18 0 job proc(s) currently held
11/29/14 23:07:23 Submitting Condor Node merge_ID0000004 job(s)...
11/29/14 23:07:23 Adding a DAGMan auxiliary log /home/khawar/pegasus_service/peg_files/tmpCVembT/tmpwork/khawar/pegasus/WordCountWF/run0001/WordCountWF-0.dag.nodes.log
11/29/14 23:07:23 Masking the events recorded in the DAGMAN auxiliary log
11/29/14 23:07:23 Mask for auxiliary log is 0,1,2,4,5,7,9,10,11,12,13,16,17,24,27
11/29/14 23:07:23 submitting: condor_submit -a dag_node_name' '=' 'merge_ID0000004 -a +DAGManJobId' '=' '135 -a DAGManJobId' '=' '135 -a submit_event_notes' '=' 'DAG' 'Node:' 'merge_ID0000004 -a dagman_log' '=' '/home/khawar/pegasus_service/peg_files/tmpCVembT/tmpwork/khawar/pegasus/WordCountWF/run0001/WordCountWF-0.dag.nodes.log -a +DAGManNodesMask' '=' '"0,1,2,4,5,7,9,10,11,12,13,16,17,24,27" -a DAG_STATUS' '=' '0 -a FAILED_COUNT' '=' '0 -a +DAGParentNodeNames' '=' '"create_dir_WordCountWF_0_condorpool,analyse_ID0000002,analyse_ID0000003" -a +KeepClaimIdle' '=' '20 -a notification' '=' 'never merge_ID0000004.sub
11/29/14 23:07:24 From submit: Submitting job(s).
11/29/14 23:07:24 From submit: 1 job(s) submitted to cluster 146.
11/29/14 23:07:24 	assigned Condor ID (146.0.0)
11/29/14 23:07:24 Submitting Condor Node stage_out_local_condorpool_1_1 job(s)...
11/29/14 23:07:24 Adding a DAGMan auxiliary log /home/khawar/pegasus_service/peg_files/tmpCVembT/tmpwork/khawar/pegasus/WordCountWF/run0001/WordCountWF-0.dag.nodes.log
11/29/14 23:07:24 Masking the events recorded in the DAGMAN auxiliary log
11/29/14 23:07:24 Mask for auxiliary log is 0,1,2,4,5,7,9,10,11,12,13,16,17,24,27
11/29/14 23:07:24 submitting: condor_submit -a dag_node_name' '=' 'stage_out_local_condorpool_1_1 -a +DAGManJobId' '=' '135 -a DAGManJobId' '=' '135 -a submit_event_notes' '=' 'DAG' 'Node:' 'stage_out_local_condorpool_1_1 -a dagman_log' '=' '/home/khawar/pegasus_service/peg_files/tmpCVembT/tmpwork/khawar/pegasus/WordCountWF/run0001/WordCountWF-0.dag.nodes.log -a +DAGManNodesMask' '=' '"0,1,2,4,5,7,9,10,11,12,13,16,17,24,27" -a DAG_STATUS' '=' '0 -a FAILED_COUNT' '=' '0 -a +DAGParentNodeNames' '=' '"analyse_ID0000003" -a +KeepClaimIdle' '=' '20 -a notification' '=' 'never stage_out_local_condorpool_1_1.sub
11/29/14 23:07:24 From submit: Submitting job(s).
11/29/14 23:07:24 From submit: 1 job(s) submitted to cluster 147.
11/29/14 23:07:24 	assigned Condor ID (147.0.0)
11/29/14 23:07:24 Submitting Condor Node clean_up_condorpool_level_4_0 job(s)...
11/29/14 23:07:24 Adding a DAGMan auxiliary log /home/khawar/pegasus_service/peg_files/tmpCVembT/tmpwork/khawar/pegasus/WordCountWF/run0001/WordCountWF-0.dag.nodes.log
11/29/14 23:07:24 Masking the events recorded in the DAGMAN auxiliary log
11/29/14 23:07:24 Mask for auxiliary log is 0,1,2,4,5,7,9,10,11,12,13,16,17,24,27
11/29/14 23:07:24 submitting: condor_submit -a dag_node_name' '=' 'clean_up_condorpool_level_4_0 -a +DAGManJobId' '=' '135 -a DAGManJobId' '=' '135 -a submit_event_notes' '=' 'DAG' 'Node:' 'clean_up_condorpool_level_4_0 -a dagman_log' '=' '/home/khawar/pegasus_service/peg_files/tmpCVembT/tmpwork/khawar/pegasus/WordCountWF/run0001/WordCountWF-0.dag.nodes.log -a +DAGManNodesMask' '=' '"0,1,2,4,5,7,9,10,11,12,13,16,17,24,27" -a DAG_STATUS' '=' '0 -a FAILED_COUNT' '=' '0 -a +DAGParentNodeNames' '=' '"analyse_ID0000002,analyse_ID0000003,stage_out_local_condorpool_0_0" -a notification' '=' 'never clean_up_condorpool_level_4_0.sub
11/29/14 23:07:24 From submit: Submitting job(s).
11/29/14 23:07:24 From submit: 1 job(s) submitted to cluster 148.
11/29/14 23:07:24 	assigned Condor ID (148.0.0)
11/29/14 23:07:24 Just submitted 3 jobs this cycle...
11/29/14 23:07:24 Currently monitoring 1 Condor log file(s)
11/29/14 23:07:24 Reassigning the id of job merge_ID0000004 from (146.0.0) to (146.0.0)
11/29/14 23:07:24 Event: ULOG_SUBMIT for Condor Node merge_ID0000004 (146.0.0)
11/29/14 23:07:24 Number of idle job procs: 1
11/29/14 23:07:24 Reassigning the id of job stage_out_local_condorpool_1_1 from (147.0.0) to (147.0.0)
11/29/14 23:07:24 Event: ULOG_SUBMIT for Condor Node stage_out_local_condorpool_1_1 (147.0.0)
11/29/14 23:07:24 Number of idle job procs: 2
11/29/14 23:07:24 Reassigning the id of job clean_up_condorpool_level_4_0 from (148.0.0) to (148.0.0)
11/29/14 23:07:24 Event: ULOG_SUBMIT for Condor Node clean_up_condorpool_level_4_0 (148.0.0)
11/29/14 23:07:24 Number of idle job procs: 3
11/29/14 23:07:24 Of 16 nodes total:
11/29/14 23:07:24  Done     Pre   Queued    Post   Ready   Un-Ready   Failed
11/29/14 23:07:24   ===     ===      ===     ===     ===        ===      ===
11/29/14 23:07:24    10       0        3       0       0          3        0
11/29/14 23:07:24 0 job proc(s) currently held
11/29/14 23:07:39 Currently monitoring 1 Condor log file(s)
11/29/14 23:07:40 Event: ULOG_EXECUTE for Condor Node merge_ID0000004 (146.0.0)
11/29/14 23:07:40 Number of idle job procs: 2
11/29/14 23:07:45 Event: ULOG_EXECUTE for Condor Node stage_out_local_condorpool_1_1 (147.0.0)
11/29/14 23:07:45 Number of idle job procs: 1
11/29/14 23:07:45 Event: ULOG_EXECUTE for Condor Node clean_up_condorpool_level_4_0 (148.0.0)
11/29/14 23:07:45 Number of idle job procs: 0
11/29/14 23:07:45 Event: ULOG_JOB_TERMINATED for Condor Node stage_out_local_condorpool_1_1 (147.0.0)
11/29/14 23:07:45 Number of idle job procs: 0
11/29/14 23:07:45 Node stage_out_local_condorpool_1_1 job proc (147.0.0) completed successfully.
11/29/14 23:07:45 Node stage_out_local_condorpool_1_1 job completed
11/29/14 23:07:45 Running POST script of Node stage_out_local_condorpool_1_1...
11/29/14 23:07:45 Of 16 nodes total:
11/29/14 23:07:45  Done     Pre   Queued    Post   Ready   Un-Ready   Failed
11/29/14 23:07:45   ===     ===      ===     ===     ===        ===      ===
11/29/14 23:07:45    10       0        2       1       0          3        0
11/29/14 23:07:45 0 job proc(s) currently held
11/29/14 23:07:45 Initializing logfile /home/khawar/pegasus_service/peg_files/tmpCVembT/tmpwork/khawar/pegasus/WordCountWF/run0001/WordCountWF-0.dag.nodes.log, 147, 0, 0
11/29/14 23:07:50 Currently monitoring 1 Condor log file(s)
11/29/14 23:07:50 Event: ULOG_POST_SCRIPT_TERMINATED for Condor Node stage_out_local_condorpool_1_1 (147.0.0)
11/29/14 23:07:50 POST Script of Node stage_out_local_condorpool_1_1 completed successfully.
11/29/14 23:07:50 Event: ULOG_JOB_TERMINATED for Condor Node clean_up_condorpool_level_4_0 (148.0.0)
11/29/14 23:07:50 Number of idle job procs: 0
11/29/14 23:07:50 Node clean_up_condorpool_level_4_0 job proc (148.0.0) completed successfully.
11/29/14 23:07:50 Node clean_up_condorpool_level_4_0 job completed
11/29/14 23:07:50 Running POST script of Node clean_up_condorpool_level_4_0...
11/29/14 23:07:50 Of 16 nodes total:
11/29/14 23:07:50  Done     Pre   Queued    Post   Ready   Un-Ready   Failed
11/29/14 23:07:50   ===     ===      ===     ===     ===        ===      ===
11/29/14 23:07:50    11       0        1       1       0          3        0
11/29/14 23:07:50 0 job proc(s) currently held
11/29/14 23:07:50 Initializing logfile /home/khawar/pegasus_service/peg_files/tmpCVembT/tmpwork/khawar/pegasus/WordCountWF/run0001/WordCountWF-0.dag.nodes.log, 148, 0, 0
11/29/14 23:07:55 Currently monitoring 1 Condor log file(s)
11/29/14 23:07:55 Event: ULOG_POST_SCRIPT_TERMINATED for Condor Node clean_up_condorpool_level_4_0 (148.0.0)
11/29/14 23:07:55 POST Script of Node clean_up_condorpool_level_4_0 completed successfully.
11/29/14 23:07:55 Of 16 nodes total:
11/29/14 23:07:55  Done     Pre   Queued    Post   Ready   Un-Ready   Failed
11/29/14 23:07:55   ===     ===      ===     ===     ===        ===      ===
11/29/14 23:07:55    12       0        1       0       0          3        0
11/29/14 23:07:55 0 job proc(s) currently held
11/29/14 23:11:41 Currently monitoring 1 Condor log file(s)
11/29/14 23:11:41 Event: ULOG_JOB_TERMINATED for Condor Node merge_ID0000004 (146.0.0)
11/29/14 23:11:41 Number of idle job procs: 0
11/29/14 23:11:41 Node merge_ID0000004 job proc (146.0.0) completed successfully.
11/29/14 23:11:41 Node merge_ID0000004 job completed
11/29/14 23:11:41 Running POST script of Node merge_ID0000004...
11/29/14 23:11:41 Of 16 nodes total:
11/29/14 23:11:41  Done     Pre   Queued    Post   Ready   Un-Ready   Failed
11/29/14 23:11:41   ===     ===      ===     ===     ===        ===      ===
11/29/14 23:11:41    12       0        0       1       0          3        0
11/29/14 23:11:41 0 job proc(s) currently held
11/29/14 23:11:41 Initializing logfile /home/khawar/pegasus_service/peg_files/tmpCVembT/tmpwork/khawar/pegasus/WordCountWF/run0001/WordCountWF-0.dag.nodes.log, 146, 0, 0
11/29/14 23:11:46 Currently monitoring 1 Condor log file(s)
11/29/14 23:11:46 Event: ULOG_POST_SCRIPT_TERMINATED for Condor Node merge_ID0000004 (146.0.0)
11/29/14 23:11:46 POST Script of Node merge_ID0000004 completed successfully.
11/29/14 23:11:46 Of 16 nodes total:
11/29/14 23:11:46  Done     Pre   Queued    Post   Ready   Un-Ready   Failed
11/29/14 23:11:46   ===     ===      ===     ===     ===        ===      ===
11/29/14 23:11:46    13       0        0       0       2          1        0
11/29/14 23:11:46 0 job proc(s) currently held
11/29/14 23:11:51 Submitting Condor Node stage_out_local_condorpool_2_0 job(s)...
11/29/14 23:11:51 Adding a DAGMan auxiliary log /home/khawar/pegasus_service/peg_files/tmpCVembT/tmpwork/khawar/pegasus/WordCountWF/run0001/WordCountWF-0.dag.nodes.log
11/29/14 23:11:51 Masking the events recorded in the DAGMAN auxiliary log
11/29/14 23:11:51 Mask for auxiliary log is 0,1,2,4,5,7,9,10,11,12,13,16,17,24,27
11/29/14 23:11:51 submitting: condor_submit -a dag_node_name' '=' 'stage_out_local_condorpool_2_0 -a +DAGManJobId' '=' '135 -a DAGManJobId' '=' '135 -a submit_event_notes' '=' 'DAG' 'Node:' 'stage_out_local_condorpool_2_0 -a dagman_log' '=' '/home/khawar/pegasus_service/peg_files/tmpCVembT/tmpwork/khawar/pegasus/WordCountWF/run0001/WordCountWF-0.dag.nodes.log -a +DAGManNodesMask' '=' '"0,1,2,4,5,7,9,10,11,12,13,16,17,24,27" -a DAG_STATUS' '=' '0 -a FAILED_COUNT' '=' '0 -a +DAGParentNodeNames' '=' '"merge_ID0000004" -a +KeepClaimIdle' '=' '20 -a notification' '=' 'never stage_out_local_condorpool_2_0.sub
11/29/14 23:11:51 From submit: Submitting job(s).
11/29/14 23:11:51 From submit: 1 job(s) submitted to cluster 149.
11/29/14 23:11:51 	assigned Condor ID (149.0.0)
11/29/14 23:11:51 Submitting Condor Node clean_up_condorpool_level_5_0 job(s)...
11/29/14 23:11:51 Adding a DAGMan auxiliary log /home/khawar/pegasus_service/peg_files/tmpCVembT/tmpwork/khawar/pegasus/WordCountWF/run0001/WordCountWF-0.dag.nodes.log
11/29/14 23:11:51 Masking the events recorded in the DAGMAN auxiliary log
11/29/14 23:11:51 Mask for auxiliary log is 0,1,2,4,5,7,9,10,11,12,13,16,17,24,27
11/29/14 23:11:51 submitting: condor_submit -a dag_node_name' '=' 'clean_up_condorpool_level_5_0 -a +DAGManJobId' '=' '135 -a DAGManJobId' '=' '135 -a submit_event_notes' '=' 'DAG' 'Node:' 'clean_up_condorpool_level_5_0 -a dagman_log' '=' '/home/khawar/pegasus_service/peg_files/tmpCVembT/tmpwork/khawar/pegasus/WordCountWF/run0001/WordCountWF-0.dag.nodes.log -a +DAGManNodesMask' '=' '"0,1,2,4,5,7,9,10,11,12,13,16,17,24,27" -a DAG_STATUS' '=' '0 -a FAILED_COUNT' '=' '0 -a +DAGParentNodeNames' '=' '"stage_out_local_condorpool_1_0,merge_ID0000004,stage_out_local_condorpool_1_1" -a notification' '=' 'never clean_up_condorpool_level_5_0.sub
11/29/14 23:11:51 From submit: Submitting job(s).
11/29/14 23:11:51 From submit: 1 job(s) submitted to cluster 150.
11/29/14 23:11:51 	assigned Condor ID (150.0.0)
11/29/14 23:11:51 Just submitted 2 jobs this cycle...
11/29/14 23:11:51 Currently monitoring 1 Condor log file(s)
11/29/14 23:11:51 Reassigning the id of job stage_out_local_condorpool_2_0 from (149.0.0) to (149.0.0)
11/29/14 23:11:51 Event: ULOG_SUBMIT for Condor Node stage_out_local_condorpool_2_0 (149.0.0)
11/29/14 23:11:51 Number of idle job procs: 1
11/29/14 23:11:51 Reassigning the id of job clean_up_condorpool_level_5_0 from (150.0.0) to (150.0.0)
11/29/14 23:11:51 Event: ULOG_SUBMIT for Condor Node clean_up_condorpool_level_5_0 (150.0.0)
11/29/14 23:11:51 Number of idle job procs: 2
11/29/14 23:11:51 Of 16 nodes total:
11/29/14 23:11:51  Done     Pre   Queued    Post   Ready   Un-Ready   Failed
11/29/14 23:11:51   ===     ===      ===     ===     ===        ===      ===
11/29/14 23:11:51    13       0        2       0       0          1        0
11/29/14 23:11:51 0 job proc(s) currently held
11/29/14 23:12:02 Currently monitoring 1 Condor log file(s)
11/29/14 23:12:02 Event: ULOG_EXECUTE for Condor Node stage_out_local_condorpool_2_0 (149.0.0)
11/29/14 23:12:02 Number of idle job procs: 1
11/29/14 23:12:12 Currently monitoring 1 Condor log file(s)
11/29/14 23:12:12 Event: ULOG_EXECUTE for Condor Node clean_up_condorpool_level_5_0 (150.0.0)
11/29/14 23:12:12 Number of idle job procs: 0
11/29/14 23:12:12 Event: ULOG_JOB_TERMINATED for Condor Node stage_out_local_condorpool_2_0 (149.0.0)
11/29/14 23:12:12 Number of idle job procs: 0
11/29/14 23:12:12 Node stage_out_local_condorpool_2_0 job proc (149.0.0) completed successfully.
11/29/14 23:12:12 Node stage_out_local_condorpool_2_0 job completed
11/29/14 23:12:12 Running POST script of Node stage_out_local_condorpool_2_0...
11/29/14 23:12:12 Event: ULOG_JOB_TERMINATED for Condor Node clean_up_condorpool_level_5_0 (150.0.0)
11/29/14 23:12:12 Number of idle job procs: 0
11/29/14 23:12:12 Node clean_up_condorpool_level_5_0 job proc (150.0.0) completed successfully.
11/29/14 23:12:12 Node clean_up_condorpool_level_5_0 job completed
11/29/14 23:12:12 Running POST script of Node clean_up_condorpool_level_5_0...
11/29/14 23:12:12 Of 16 nodes total:
11/29/14 23:12:12  Done     Pre   Queued    Post   Ready   Un-Ready   Failed
11/29/14 23:12:12   ===     ===      ===     ===     ===        ===      ===
11/29/14 23:12:12    13       0        0       2       0          1        0
11/29/14 23:12:12 0 job proc(s) currently held
11/29/14 23:12:12 Initializing logfile /home/khawar/pegasus_service/peg_files/tmpCVembT/tmpwork/khawar/pegasus/WordCountWF/run0001/WordCountWF-0.dag.nodes.log, 149, 0, 0
11/29/14 23:12:12 Initializing logfile /home/khawar/pegasus_service/peg_files/tmpCVembT/tmpwork/khawar/pegasus/WordCountWF/run0001/WordCountWF-0.dag.nodes.log, 150, 0, 0
11/29/14 23:12:17 Currently monitoring 1 Condor log file(s)
11/29/14 23:12:17 Event: ULOG_POST_SCRIPT_TERMINATED for Condor Node stage_out_local_condorpool_2_0 (149.0.0)
11/29/14 23:12:17 POST Script of Node stage_out_local_condorpool_2_0 completed successfully.
11/29/14 23:12:17 Event: ULOG_POST_SCRIPT_TERMINATED for Condor Node clean_up_condorpool_level_5_0 (150.0.0)
11/29/14 23:12:17 POST Script of Node clean_up_condorpool_level_5_0 completed successfully.
11/29/14 23:12:17 Of 16 nodes total:
11/29/14 23:12:17  Done     Pre   Queued    Post   Ready   Un-Ready   Failed
11/29/14 23:12:17   ===     ===      ===     ===     ===        ===      ===
11/29/14 23:12:17    15       0        0       0       1          0        0
11/29/14 23:12:17 0 job proc(s) currently held
11/29/14 23:12:22 Submitting Condor Node clean_up_condorpool_level_6_0 job(s)...
11/29/14 23:12:22 Adding a DAGMan auxiliary log /home/khawar/pegasus_service/peg_files/tmpCVembT/tmpwork/khawar/pegasus/WordCountWF/run0001/WordCountWF-0.dag.nodes.log
11/29/14 23:12:22 Masking the events recorded in the DAGMAN auxiliary log
11/29/14 23:12:22 Mask for auxiliary log is 0,1,2,4,5,7,9,10,11,12,13,16,17,24,27
11/29/14 23:12:22 submitting: condor_submit -a dag_node_name' '=' 'clean_up_condorpool_level_6_0 -a +DAGManJobId' '=' '135 -a DAGManJobId' '=' '135 -a submit_event_notes' '=' 'DAG' 'Node:' 'clean_up_condorpool_level_6_0 -a dagman_log' '=' '/home/khawar/pegasus_service/peg_files/tmpCVembT/tmpwork/khawar/pegasus/WordCountWF/run0001/WordCountWF-0.dag.nodes.log -a +DAGManNodesMask' '=' '"0,1,2,4,5,7,9,10,11,12,13,16,17,24,27" -a DAG_STATUS' '=' '0 -a FAILED_COUNT' '=' '0 -a +DAGParentNodeNames' '=' '"stage_out_local_condorpool_2_0" -a notification' '=' 'never clean_up_condorpool_level_6_0.sub
11/29/14 23:12:22 From submit: Submitting job(s).
11/29/14 23:12:22 From submit: 1 job(s) submitted to cluster 151.
11/29/14 23:12:22 	assigned Condor ID (151.0.0)
11/29/14 23:12:22 Just submitted 1 job this cycle...
11/29/14 23:12:22 Currently monitoring 1 Condor log file(s)
11/29/14 23:12:22 Reassigning the id of job clean_up_condorpool_level_6_0 from (151.0.0) to (151.0.0)
11/29/14 23:12:22 Event: ULOG_SUBMIT for Condor Node clean_up_condorpool_level_6_0 (151.0.0)
11/29/14 23:12:22 Number of idle job procs: 1
11/29/14 23:12:22 Of 16 nodes total:
11/29/14 23:12:22  Done     Pre   Queued    Post   Ready   Un-Ready   Failed
11/29/14 23:12:22   ===     ===      ===     ===     ===        ===      ===
11/29/14 23:12:22    15       0        1       0       0          0        0
11/29/14 23:12:22 0 job proc(s) currently held
11/29/14 23:12:37 Currently monitoring 1 Condor log file(s)
11/29/14 23:12:37 Event: ULOG_EXECUTE for Condor Node clean_up_condorpool_level_6_0 (151.0.0)
11/29/14 23:12:37 Number of idle job procs: 0
11/29/14 23:12:37 Event: ULOG_JOB_TERMINATED for Condor Node clean_up_condorpool_level_6_0 (151.0.0)
11/29/14 23:12:37 Number of idle job procs: 0
11/29/14 23:12:37 Node clean_up_condorpool_level_6_0 job proc (151.0.0) completed successfully.
11/29/14 23:12:37 Node clean_up_condorpool_level_6_0 job completed
11/29/14 23:12:37 Running POST script of Node clean_up_condorpool_level_6_0...
11/29/14 23:12:37 Of 16 nodes total:
11/29/14 23:12:37  Done     Pre   Queued    Post   Ready   Un-Ready   Failed
11/29/14 23:12:37   ===     ===      ===     ===     ===        ===      ===
11/29/14 23:12:37    15       0        0       1       0          0        0
11/29/14 23:12:37 0 job proc(s) currently held
11/29/14 23:12:38 Initializing logfile /home/khawar/pegasus_service/peg_files/tmpCVembT/tmpwork/khawar/pegasus/WordCountWF/run0001/WordCountWF-0.dag.nodes.log, 151, 0, 0
11/29/14 23:12:43 Currently monitoring 1 Condor log file(s)
11/29/14 23:12:43 Event: ULOG_POST_SCRIPT_TERMINATED for Condor Node clean_up_condorpool_level_6_0 (151.0.0)
11/29/14 23:12:43 POST Script of Node clean_up_condorpool_level_6_0 completed successfully.
11/29/14 23:12:43 Of 16 nodes total:
11/29/14 23:12:43  Done     Pre   Queued    Post   Ready   Un-Ready   Failed
11/29/14 23:12:43   ===     ===      ===     ===     ===        ===      ===
11/29/14 23:12:43    16       0        0       0       0          0        0
11/29/14 23:12:43 0 job proc(s) currently held
11/29/14 23:12:43 All jobs Completed!
11/29/14 23:12:43 Note: 0 total job deferrals because of -MaxJobs limit (0)
11/29/14 23:12:43 Note: 0 total job deferrals because of -MaxIdle limit (0)
11/29/14 23:12:43 Note: 0 total job deferrals because of node category throttles
11/29/14 23:12:43 Note: 0 total PRE script deferrals because of -MaxPre limit (2)
11/29/14 23:12:43 Note: 0 total POST script deferrals because of -MaxPost limit (20)
11/29/14 23:12:43 Of 16 nodes total:
11/29/14 23:12:43  Done     Pre   Queued    Post   Ready   Un-Ready   Failed
11/29/14 23:12:43   ===     ===      ===     ===     ===        ===      ===
11/29/14 23:12:43    16       0        0       0       0          0        0
11/29/14 23:12:43 0 job proc(s) currently held
11/29/14 23:12:43 **** condor_scheduniv_exec.135.0 (condor_DAGMAN) pid 6158 EXITING WITH STATUS 0
