#SITE	LFN	PFN	TYPE	SYSINFO		PROFILES

#local	pegasus::rc-client	/home/pegasus/2.0/bin/rc-client		INSTALLED	null	null
#local	pegasus::transfer	/home/pegasus/2.0/bin/linux/transfer	INSTALLED	null	env::GLOBUS_LOCATION="/vdt/globus";env::LD_LIBRARY_PATH="/vdt/globus/lib"
#local	pegasus::dirmanager 	/home/pegasus/2.0/bin/dirmanager	INSTALLED	null	null

condorpool	wordcount::preprocess:1.0	/opt/parallel_jobs/peg_jobs/wordcount/pre.py		STAGEABLE	null   null
condorpool      wordcount::analyse:1.0		/opt/parallel_jobs/peg_jobs/wordcount/analyse.py	STAGEABLE    null	null
condorpool	wordcount::merge:1.0		/opt/parallel_jobs/peg_jobs/wordcount/merge.py	        null	null	null
