2014-08-19 11:49:57,032    INFO:  Reading URL pairs from stdin
2014-08-19 11:49:57,032    INFO:  PATH=/home/khawar/pegasus-4.2.0/bin:/usr/bin:/bin
2014-08-19 11:49:57,032    INFO:  LD_LIBRARY_PATH=
2014-08-19 11:49:57,033    INFO:  Sorting the tranfers based on transfer type and source/destination
2014-08-19 11:49:57,033    INFO:  --------------------------------------------------------------------------------
2014-08-19 11:49:57,033    INFO:  Starting transfers - attempt 1
2014-08-19 11:49:57,033    INFO:  Trying to detect availability/location of tool: wget
2014-08-19 11:49:57,039    INFO:  Tool found: wget   Version: 1.14   Path: /usr/bin/wget
2014-08-19 11:49:57,039    INFO:  /usr/bin/wget -q --no-check-certificate -O '//home/khawar/phdcode/peg_mywork/tmpwork/khawar/pegasus/WordCountWF/run0013/pegasus-worker-4.2.0-x86_rhel_5.tar.gz' 'http://download.pegasus.isi.edu/wms/download/4.2/pegasus-worker-4.2.0-x86_rhel_5.tar.gz'
2014-08-19 11:49:58,633    INFO:  --------------------------------------------------------------------------------
2014-08-19 11:49:58,633    INFO:  Stats: 188.7 KB transferred in 2 seconds. Rate: 117.9 KB/s (943.5 Kb/s)
2014-08-19 11:49:58,633    INFO:  NOTE: stats do not include third party gsiftp/srm transfers
2014-08-19 11:49:58,633    INFO:  All transfers completed successfully.
